simulation/qsim/rafaelAula2.msim.vcd
$comment
	File created using the following command:
		vcd file rafaelAula2.msim.vcd -direction
$end
$date
	Fri Jul 11 10:21:41 2025
$end
$version
	ModelSim Version 2020.1
$end
$timescale
	1ps
$end

$scope module CI_74LS157_vlg_vec_tst $end
$var reg 1 ! E $end
$var reg 1 " I0a $end
$var reg 1 # I0b $end
$var reg 1 $ I0c $end
$var reg 1 % I0d $end
$var reg 1 & I1a $end
$var reg 1 ' I1b $end
$var reg 1 ( I1c $end
$var reg 1 ) I1d $end
$var reg 1 * S $end
$var wire 1 + Za $end
$var wire 1 , Zb $end
$var wire 1 - Zc $end
$var wire 1 . Zd $end

$scope module i1 $end
$var wire 1 / gnd $end
$var wire 1 0 vcc $end
$var wire 1 1 unknown $end
$var tri1 1 2 devclrn $end
$var tri1 1 3 devpor $end
$var tri1 1 4 devoe $end
$var wire 1 5 ~QUARTUS_CREATED_GND~I_combout $end
$var wire 1 6 ~QUARTUS_CREATED_UNVM~~busy $end
$var wire 1 7 ~QUARTUS_CREATED_ADC1~~eoc $end
$var wire 1 8 ~QUARTUS_CREATED_ADC2~~eoc $end
$var wire 1 9 Zd~output_o $end
$var wire 1 : Zc~output_o $end
$var wire 1 ; Zb~output_o $end
$var wire 1 < Za~output_o $end
$var wire 1 = I1d~input_o $end
$var wire 1 > S~input_o $end
$var wire 1 ? E~input_o $end
$var wire 1 @ I0d~input_o $end
$var wire 1 A inst~0_combout $end
$var wire 1 B I0c~input_o $end
$var wire 1 C I1c~input_o $end
$var wire 1 D inst6~0_combout $end
$var wire 1 E I1b~input_o $end
$var wire 1 F I0b~input_o $end
$var wire 1 G inst9~0_combout $end
$var wire 1 H I1a~input_o $end
$var wire 1 I I0a~input_o $end
$var wire 1 J inst12~0_combout $end
$upscope $end
$upscope $end
$enddefinitions $end
#0
$dumpvars
0!
0"
0#
0$
0%
0&
0'
0(
0)
0*
0+
0,
0-
0.
0/
10
x1
12
13
14
05
z6
z7
z8
09
0:
0;
0<
0=
0>
0?
0@
0A
0B
0C
0D
0E
0F
0G
0H
0I
0J
$end
#25000
1%
1$
1#
1"
1I
1F
1B
1@
1J
1G
1D
1A
19
1:
1;
1<
1+
1,
1-
1.
#50000
1)
1(
1'
1&
0%
0$
0#
0"
0I
0F
0B
0@
1H
1E
1C
1=
0J
0G
0D
0A
09
0:
0;
0<
0+
0,
0-
0.
#75000
1%
1$
1#
1"
1I
1F
1B
1@
1J
1G
1D
1A
19
1:
1;
1<
1+
1,
1-
1.
#100000
1*
0)
0(
0'
0&
0%
0$
0#
0"
0I
0F
0B
0@
0H
0E
0C
0=
1>
0J
0G
0D
0A
09
0:
0;
0<
0+
0,
0-
0.
#125000
1%
1$
1#
1"
1I
1F
1B
1@
#150000
1)
1(
1'
1&
0%
0$
0#
0"
0I
0F
0B
0@
1H
1E
1C
1=
1J
1G
1D
1A
19
1:
1;
1<
1+
1,
1-
1.
#175000
1%
1$
1#
1"
1I
1F
1B
1@
#200000
1!
0*
0)
0(
0'
0&
0%
0$
0#
0"
0I
0F
0B
0@
0H
0E
0C
0=
0>
1?
0J
0G
0D
0A
09
0:
0;
0<
0+
0,
0-
0.
#225000
1%
1$
1#
1"
1I
1F
1B
1@
#250000
1)
1(
1'
1&
0%
0$
0#
0"
0I
0F
0B
0@
1H
1E
1C
1=
#275000
1%
1$
1#
1"
1I
1F
1B
1@
#300000
1*
0)
0(
0'
0&
0%
0$
0#
0"
0I
0F
0B
0@
0H
0E
0C
0=
1>
#325000
1%
1$
1#
1"
1I
1F
1B
1@
#350000
1)
1(
1'
1&
0%
0$
0#
0"
0I
0F
0B
0@
1H
1E
1C
1=
#375000
1%
1$
1#
1"
1I
1F
1B
1@
#400000
0!
0*
0)
0(
0'
0&
0%
0$
0#
0"
0I
0F
0B
0@
0H
0E
0C
0=
0>
0?
#425000
1%
1$
1#
1"
1I
1F
1B
1@
1J
1G
1D
1A
19
1:
1;
1<
1+
1,
1-
1.
#450000
1)
1(
1'
1&
0%
0$
0#
0"
0I
0F
0B
0@
1H
1E
1C
1=
0J
0G
0D
0A
09
0:
0;
0<
0+
0,
0-
0.
#475000
1%
1$
1#
1"
1I
1F
1B
1@
1J
1G
1D
1A
19
1:
1;
1<
1+
1,
1-
1.
#500000
1*
0)
0(
0'
0&
0%
0$
0#
0"
0I
0F
0B
0@
0H
0E
0C
0=
1>
0J
0G
0D
0A
09
0:
0;
0<
0+
0,
0-
0.
#525000
1%
1$
1#
1"
1I
1F
1B
1@
#550000
1)
1(
1'
1&
0%
0$
0#
0"
0I
0F
0B
0@
1H
1E
1C
1=
1J
1G
1D
1A
19
1:
1;
1<
1+
1,
1-
1.
#575000
1%
1$
1#
1"
1I
1F
1B
1@
#600000
1!
0*
0)
0(
0'
0&
0%
0$
0#
0"
0I
0F
0B
0@
0H
0E
0C
0=
0>
1?
0J
0G
0D
0A
09
0:
0;
0<
0+
0,
0-
0.
#625000
1%
1$
1#
1"
1I
1F
1B
1@
#650000
1)
1(
1'
1&
0%
0$
0#
0"
0I
0F
0B
0@
1H
1E
1C
1=
#675000
1%
1$
1#
1"
1I
1F
1B
1@
#700000
1*
0)
0(
0'
0&
0%
0$
0#
0"
0I
0F
0B
0@
0H
0E
0C
0=
1>
#725000
1%
1$
1#
1"
1I
1F
1B
1@
#750000
1)
1(
1'
1&
0%
0$
0#
0"
0I
0F
0B
0@
1H
1E
1C
1=
#775000
1%
1$
1#
1"
1I
1F
1B
1@
#800000
0!
0*
0)
0(
0'
0&
0%
0$
0#
0"
0I
0F
0B
0@
0H
0E
0C
0=
0>
0?
#825000
1%
1$
1#
1"
1I
1F
1B
1@
1J
1G
1D
1A
19
1:
1;
1<
1+
1,
1-
1.
#850000
1)
1(
1'
1&
0%
0$
0#
0"
0I
0F
0B
0@
1H
1E
1C
1=
0J
0G
0D
0A
09
0:
0;
0<
0+
0,
0-
0.
#875000
1%
1$
1#
1"
1I
1F
1B
1@
1J
1G
1D
1A
19
1:
1;
1<
1+
1,
1-
1.
#900000
1*
0)
0(
0'
0&
0%
0$
0#
0"
0I
0F
0B
0@
0H
0E
0C
0=
1>
0J
0G
0D
0A
09
0:
0;
0<
0+
0,
0-
0.
#925000
1%
1$
1#
1"
1I
1F
1B
1@
#950000
1)
1(
1'
1&
0%
0$
0#
0"
0I
0F
0B
0@
1H
1E
1C
1=
1J
1G
1D
1A
19
1:
1;
1<
1+
1,
1-
1.
#975000
1%
1$
1#
1"
1I
1F
1B
1@
