simulation/qsim/rafaelAula2.msim.vcd
$comment
	File created using the following command:
		vcd file rafaelAula2.msim.vcd -direction
$end
$date
	Sun Aug  3 20:04:36 2025
$end
$version
	ModelSim Version 2020.1
$end
$timescale
	1ps
$end

$scope module DM74LS138_vlg_vec_tst $end
$var reg 1 ! A $end
$var reg 1 " B $end
$var reg 1 # C $end
$var reg 1 $ G1 $end
$var reg 1 % G2A $end
$var reg 1 & G2B $end
$var wire 1 ' Y0 $end
$var wire 1 ( Y1 $end
$var wire 1 ) Y2 $end
$var wire 1 * Y3 $end
$var wire 1 + Y4 $end
$var wire 1 , Y5 $end
$var wire 1 - Y6 $end
$var wire 1 . Y7 $end

$scope module i1 $end
$var wire 1 / gnd $end
$var wire 1 0 vcc $end
$var wire 1 1 unknown $end
$var tri1 1 2 devclrn $end
$var tri1 1 3 devpor $end
$var tri1 1 4 devoe $end
$var wire 1 5 ~QUARTUS_CREATED_GND~I_combout $end
$var wire 1 6 ~QUARTUS_CREATED_UNVM~~busy $end
$var wire 1 7 ~QUARTUS_CREATED_ADC1~~eoc $end
$var wire 1 8 ~QUARTUS_CREATED_ADC2~~eoc $end
$var wire 1 9 Y0~output_o $end
$var wire 1 : Y1~output_o $end
$var wire 1 ; Y2~output_o $end
$var wire 1 < Y3~output_o $end
$var wire 1 = Y4~output_o $end
$var wire 1 > Y5~output_o $end
$var wire 1 ? Y6~output_o $end
$var wire 1 @ Y7~output_o $end
$var wire 1 A C~input_o $end
$var wire 1 B B~input_o $end
$var wire 1 C A~input_o $end
$var wire 1 D G2B~input_o $end
$var wire 1 E G2A~input_o $end
$var wire 1 F G1~input_o $end
$var wire 1 G inst8~0_combout $end
$var wire 1 H inst8~combout $end
$var wire 1 I inst9~0_combout $end
$var wire 1 J inst9~combout $end
$var wire 1 K inst10~combout $end
$var wire 1 L inst11~combout $end
$var wire 1 M inst12~combout $end
$var wire 1 N inst13~combout $end
$var wire 1 O inst14~combout $end
$var wire 1 P inst15~combout $end
$upscope $end
$upscope $end
$enddefinitions $end
#0
$dumpvars
0!
0"
0#
1$
0%
0&
0'
1(
1)
1*
1+
1,
1-
1.
0/
10
x1
12
13
14
05
z6
z7
z8
09
1:
1;
1<
1=
1>
1?
1@
0A
0B
0C
0D
0E
1F
1G
1H
0I
0J
0K
0L
0M
0N
0O
0P
$end
#25000
1!
1C
1I
0G
1J
0H
19
0:
0(
1'
#50000
1"
0!
0C
1B
0I
1G
1L
0J
1:
0<
0L
1K
0*
1(
0;
1<
1*
0)
#75000
1!
1C
1I
0G
1L
0K
1;
0<
0*
1)
#100000
1#
0"
0!
0C
0B
1A
0I
1G
1N
0L
1<
0>
0N
1M
0,
1*
0=
1>
1,
0+
#125000
1!
1C
1I
0G
1N
0M
1=
0>
0,
1+
#150000
1"
0!
0C
1B
0I
1G
1P
0N
1>
0@
0P
1O
0.
1,
0?
1@
1.
0-
#175000
1!
1C
1I
0G
1P
0O
1?
0@
0.
1-
#200000
0#
0"
0!
0C
0B
0A
0I
1G
0P
1J
0:
1@
0J
1H
1.
0(
09
1:
1(
0'
#225000
1!
1C
1I
0G
1J
0H
19
0:
0(
1'
#250000
1"
0!
0C
1B
0I
1G
1L
0J
1:
0<
0L
1K
0*
1(
0;
1<
1*
0)
#275000
1!
1C
1I
0G
1L
0K
1;
0<
0*
1)
#300000
1#
0"
0!
0C
0B
1A
0I
1G
1N
0L
1<
0>
0N
1M
0,
1*
0=
1>
1,
0+
#325000
1!
1C
1I
0G
1N
0M
1=
0>
0,
1+
#350000
1"
0!
0C
1B
0I
1G
1P
0N
1>
0@
0P
1O
0.
1,
0?
1@
1.
0-
#375000
1!
1C
1I
0G
1P
0O
1?
0@
0.
1-
#400000
0#
0"
0!
0C
0B
0A
0I
1G
0P
1J
0:
1@
0J
1H
1.
0(
09
1:
1(
0'
#425000
1!
1C
1I
0G
1J
0H
19
0:
0(
1'
#450000
1"
0!
0C
1B
0I
1G
1L
0J
1:
0<
0L
1K
0*
1(
0;
1<
1*
0)
#475000
1!
1C
1I
0G
1L
0K
1;
0<
0*
1)
#500000
1#
0"
0!
0C
0B
1A
0I
1G
1N
0L
1<
0>
0N
1M
0,
1*
0=
1>
1,
0+
#525000
1!
1C
1I
0G
1N
0M
1=
0>
0,
1+
#550000
1"
0!
0C
1B
0I
1G
1P
0N
1>
0@
0P
1O
0.
1,
0?
1@
1.
0-
#575000
1!
1C
1I
0G
1P
0O
1?
0@
0.
1-
#600000
0#
0"
0!
0C
0B
0A
0I
1G
0P
1J
0:
1@
0J
1H
1.
0(
09
1:
1(
0'
#625000
1!
1C
1I
0G
1J
0H
19
0:
0(
1'
#650000
1"
0!
0C
1B
0I
1G
1L
0J
1:
0<
0L
1K
0*
1(
0;
1<
1*
0)
#675000
1!
1C
1I
0G
1L
0K
1;
0<
0*
1)
#700000
1#
0"
0!
0C
0B
1A
0I
1G
1N
0L
1<
0>
0N
1M
0,
1*
0=
1>
1,
0+
#725000
1!
1C
1I
0G
1N
0M
1=
0>
0,
1+
#750000
1"
0!
0C
1B
0I
1G
1P
0N
1>
0@
0P
1O
0.
1,
0?
1@
1.
0-
#775000
1!
1C
1I
0G
1P
0O
1?
0@
0.
1-
#800000
0#
0"
0!
0C
0B
0A
0I
1G
0P
1J
0:
1@
0J
1H
1.
0(
09
1:
1(
0'
#825000
1!
1C
1I
0G
1J
0H
19
0:
0(
1'
#850000
1"
0!
0C
1B
0I
1G
1L
0J
1:
0<
0L
1K
0*
1(
0;
1<
1*
0)
#875000
1!
1C
1I
0G
1L
0K
1;
0<
0*
1)
#900000
1#
0"
0!
0C
0B
1A
0I
1G
1N
0L
1<
0>
0N
1M
0,
1*
0=
1>
1,
0+
#925000
1!
1C
1I
0G
1N
0M
1=
0>
0,
1+
#950000
1"
0!
0C
1B
0I
1G
1P
0N
1>
0@
0P
1O
0.
1,
0?
1@
1.
0-
#975000
1!
1C
1I
0G
1P
0O
1?
0@
0.
1-
